\contentsline {section}{\numberline {1}Running a barebones IRC server.}{2}
\contentsline {section}{\numberline {2}Configuring your IRC server.}{2}
\contentsline {subsection}{\numberline {2.1}Plugin jars directory}{2}
\contentsline {subsection}{\numberline {2.2}Persistent Storage}{2}
\contentsline {subsection}{\numberline {2.3}Plugin Dependencies}{3}
\contentsline {section}{\numberline {3}Getting help with a plugin}{3}
\contentsline {section}{\numberline {4}Available Plugins}{4}
\contentsline {section}{\numberline {5}Supported Clients}{4}
